Clustering des gènes
…
Avant d’y ajouter les données d’expression, effectuez la
normalisation par la taille de la librarie pour RNAseq_data
comme dans la séance 1 (en utilisant la fonction
cpmNormalization du package
scTenifoldNet).

A la fin, vous voulez un tableau comme celui ci-dessous, avec une
colonne contenant le nom des gènes et une colonne par échantillon avec
les données d’expression normalisées par la taille de la librarie.

## # A tibble: 36,795 × 13
##    gene      arp6_0.5mM_rep1 arp6_0.5mM_rep2 arp6_0.5mM_rep3 WT_10mM_rep1
##    <chr>               <dbl>           <dbl>           <dbl>        <dbl>
##  1 AT1G01010           10.1             8.07            6.02        13.0 
##  2 AT1G01020           16.2            13.6            13.1         12.6 
##  3 AT1G01030            2.49            4.81            3.64         3.44
##  4 AT1G01040           48.1            46.4            41.3         41.7 
##  5 AT1G01050           64.4            60.3            63.8         68.0 
##  6 AT1G01060            4.60            2.79            3.99         1.43
##  7 AT1G01070            9.91           10.3             6.33         6.64
##  8 AT1G01080           51.8            55.2            38.1         68.3 
##  9 AT1G01090          170.            210.            237.         174.  
## 10 AT1G01100          376.            428.            359.         380.  
## # ℹ 36,785 more rows
## # ℹ 8 more variables: WT_10mM_rep2 <dbl>, WT_10mM_rep3 <dbl>,
## #   arp6_10mM_rep1 <dbl>, arp6_10mM_rep2 <dbl>, arp6_10mM_rep3 <dbl>,
## #   WT_0.5mM_rep1 <dbl>, WT_0.5mM_rep2 <dbl>, WT_0.5mM_rep3 <dbl>
…
